Version 4
SHEET 1 880 680
WIRE -48 96 -144 96
WIRE 144 96 32 96
WIRE 272 112 208 112
WIRE 352 112 272 112
WIRE 144 128 112 128
WIRE 272 128 272 112
WIRE -144 160 -144 96
WIRE 112 224 112 128
WIRE 272 224 272 208
WIRE 272 224 112 224
WIRE 272 256 272 224
FLAG 272 336 0
FLAG -144 240 0
FLAG -416 -80 0
FLAG -416 -160 VCC
FLAG 176 144 VCC
FLAG -224 -80 vcc-
FLAG 176 80 vcc-
FLAG -224 -160 0
SYMBOL OpAmps\\UniversalOpamp2 176 112 M180
SYMATTR InstName U1
SYMBOL res 48 80 R90
WINDOW 0 0 56 VBottom 2
WINDOW 3 32 56 VTop 2
SYMATTR InstName R3
SYMATTR Value 10k
SYMBOL res 256 112 R0
SYMATTR InstName R2
SYMATTR Value 39k
SYMBOL res 256 240 R0
SYMATTR InstName R1
SYMATTR Value 1k
SYMBOL voltage -144 144 R0
WINDOW 123 24 124 Left 2
WINDOW 39 0 0 Left 0
SYMATTR Value2 AC 1 1
SYMATTR InstName V1
SYMATTR Value SINE()
SYMBOL voltage -416 -176 R0
WINDOW 123 0 0 Left 0
WINDOW 39 0 0 Left 0
SYMATTR InstName V2
SYMATTR Value 5
SYMBOL voltage -224 -176 R0
WINDOW 123 0 0 Left 0
WINDOW 39 0 0 Left 0
SYMATTR InstName V3
SYMATTR Value 5
TEXT -448 360 Left 2 !.ac dec 20 100 2000
